# Blender v2.80 (sub 75) OBJ File: 'Arrow.blend'
# www.blender.org
mtllib ArrowModel.mtl
o Cylinder_Cylinder.001
v -0.145947 -0.498081 -0.000000
v -0.145947 -0.812828 -0.000000
v -0.017992 -0.992504 0.043436
v -0.017992 1.089785 0.043436
v -0.033245 -0.992504 0.033245
v -0.033245 1.089785 0.033245
v -0.043436 -0.992504 0.017992
v -0.043436 1.089785 0.017992
v -0.047015 -0.992504 -0.000000
v -0.047015 1.089785 -0.000000
v -0.043436 -0.992504 -0.017992
v -0.043436 1.089785 -0.017992
v -0.033245 -0.992504 -0.033245
v -0.033245 1.089785 -0.033245
v -0.017992 -0.992504 -0.043436
v -0.017992 1.089785 -0.043436
v -0.128584 0.957391 0.000000
v -0.117169 0.972841 0.000000
v -0.093308 0.994164 0.000000
v -0.065415 1.013864 0.000000
v -0.044383 1.023815 0.000000
v -0.069337 1.193409 0.007387
v -0.043643 1.193581 0.021402
v -0.000154 1.193869 0.039779
v -0.058720 1.193480 0.013443
v -0.075358 1.193368 0.003838
v -0.030414 1.193669 0.027761
v -0.081521 1.193327 0.000010
v -0.043666 1.193484 -0.021393
v -0.075363 1.193355 -0.003818
v -0.030436 1.193530 -0.027761
v -0.069347 1.193381 -0.007368
v -0.000154 1.193619 -0.039810
v -0.058737 1.193425 -0.013427
v -0.049928 1.060606 -0.047598
v -0.071952 1.059673 -0.036798
v -0.097458 1.057851 -0.023242
v -0.115858 1.055894 -0.012840
v -0.126524 1.054481 -0.006684
v -0.137651 1.052792 0.000026
v -0.126516 1.054491 0.006735
v -0.097433 1.057893 0.023287
v -0.071918 1.059747 0.036833
v -0.049894 1.060713 0.047618
v 0.000090 1.061836 0.067993
v -0.115843 1.055915 0.012890
v 0.000090 1.061643 -0.068021
v -0.069337 1.193409 0.007387
v -0.043643 1.193581 0.021402
v -0.000154 1.193869 0.039779
v -0.058720 1.193480 0.013443
v -0.075358 1.193368 0.003838
v -0.030414 1.193669 0.027761
v -0.081521 1.193327 0.000010
v -0.043666 1.193484 -0.021393
v -0.075363 1.193355 -0.003818
v -0.030436 1.193530 -0.027761
v -0.069347 1.193381 -0.007368
v -0.000154 1.193619 -0.039810
v -0.058737 1.193425 -0.013427
v -0.042034 1.127068 -0.039558
v -0.060478 1.126578 -0.030546
v -0.081695 1.125638 -0.019248
v -0.096850 1.124638 -0.010607
v -0.105557 1.123918 -0.005512
v -0.114574 1.123060 0.000020
v -0.105550 1.123930 0.005551
v -0.081673 1.125686 0.019282
v -0.060449 1.126664 0.030571
v -0.042004 1.127191 0.039571
v -0.096837 1.124662 0.010645
v -0.046107 1.026091 0.050510
v -0.044383 1.010608 0.041672
v -0.067233 1.016980 0.040034
v -0.065415 1.000728 0.033012
v -0.094175 0.996909 0.026673
v -0.093308 0.981200 0.021765
v -0.116955 0.974916 0.015607
v -0.110404 0.966556 0.012373
v -0.132018 0.959116 0.008465
v -0.124522 0.952488 0.007187
v -0.149409 0.940396 0.000003
v -0.135674 0.940590 -0.000228
v -0.132020 0.959101 -0.008458
v -0.124522 0.952488 -0.007414
v -0.116958 0.974891 -0.015599
v -0.110404 0.966556 -0.012373
v -0.094179 0.996886 -0.026664
v -0.093308 0.981200 -0.021765
v -0.067244 1.016970 -0.040023
v -0.065415 1.000728 -0.033012
v -0.046121 1.026091 -0.050501
v -0.044383 1.010608 -0.041672
v 0.000000 -0.498081 -0.000000
v 0.145947 -0.498081 -0.000000
v 0.000000 -0.085531 0.000000
v 0.000000 -0.812828 -0.000000
v 0.145947 -0.812828 -0.000000
v 0.000000 -0.992504 -0.047015
v 0.000000 1.089785 -0.047015
v 0.000000 -0.992504 0.047015
v 0.000000 1.089785 0.047015
v 0.017992 -0.992504 0.043436
v 0.017992 1.089785 0.043436
v 0.033245 -0.992504 0.033245
v 0.033245 1.089785 0.033245
v 0.043436 -0.992504 0.017992
v 0.043436 1.089785 0.017992
v 0.047015 -0.992504 -0.000000
v 0.047015 1.089785 -0.000000
v 0.043436 -0.992504 -0.017992
v 0.043436 1.089785 -0.017992
v 0.033245 -0.992504 -0.033245
v 0.033245 1.089785 -0.033245
v 0.017992 -0.992504 -0.043436
v 0.017992 1.089785 -0.043436
v 0.000000 1.306271 0.000000
v 0.128584 0.957391 0.000000
v 0.117169 0.972841 0.000000
v 0.093308 0.994164 0.000000
v 0.065415 1.013864 0.000000
v 0.044383 1.023815 0.000000
v 0.000000 1.034559 0.000000
v 0.069337 1.193409 0.007387
v 0.043643 1.193581 0.021402
v 0.000154 1.193869 0.039779
v 0.058720 1.193480 0.013443
v 0.075358 1.193368 0.003838
v 0.030414 1.193669 0.027761
v 0.081521 1.193327 0.000010
v 0.043666 1.193484 -0.021393
v 0.075363 1.193355 -0.003818
v 0.030436 1.193530 -0.027761
v 0.069347 1.193381 -0.007368
v 0.000154 1.193619 -0.039810
v 0.058737 1.193425 -0.013427
v 0.049928 1.060606 -0.047598
v 0.071952 1.059673 -0.036798
v 0.097458 1.057851 -0.023242
v 0.115858 1.055894 -0.012840
v 0.126524 1.054481 -0.006684
v 0.137651 1.052792 0.000026
v 0.126516 1.054491 0.006735
v 0.097433 1.057893 0.023287
v 0.071918 1.059747 0.036833
v 0.049894 1.060713 0.047618
v -0.000090 1.061836 0.067993
v 0.115843 1.055915 0.012890
v -0.000090 1.061643 -0.068021
v 0.069337 1.193409 0.007387
v 0.043643 1.193581 0.021402
v 0.000154 1.193869 0.039779
v 0.058720 1.193480 0.013443
v 0.075358 1.193368 0.003838
v 0.030414 1.193669 0.027761
v 0.081521 1.193327 0.000010
v 0.043666 1.193484 -0.021393
v 0.075363 1.193355 -0.003818
v 0.030436 1.193530 -0.027761
v 0.069347 1.193381 -0.007368
v 0.000154 1.193619 -0.039810
v 0.058737 1.193425 -0.013427
v 0.000000 1.127631 -0.056605
v 0.042034 1.127068 -0.039558
v 0.060478 1.126578 -0.030546
v 0.081695 1.125638 -0.019248
v 0.096850 1.124638 -0.010607
v 0.105557 1.123918 -0.005512
v 0.114574 1.123060 0.000020
v 0.105550 1.123930 0.005551
v 0.081673 1.125686 0.019282
v 0.060449 1.126664 0.030571
v 0.042004 1.127191 0.039571
v 0.000000 1.127853 0.056575
v 0.096837 1.124662 0.010645
v 0.000000 -0.992504 -0.000000
v 0.000000 1.021277 -0.057943
v 0.000000 1.030940 -0.070767
v 0.000000 1.030903 0.070768
v 0.000000 1.021277 0.057943
v 0.046107 1.026091 0.050510
v 0.044383 1.010608 0.041672
v 0.067233 1.016980 0.040034
v 0.065415 1.000728 0.033012
v 0.094175 0.996909 0.026673
v 0.093308 0.981200 0.021765
v 0.116955 0.974916 0.015607
v 0.110404 0.966556 0.012373
v 0.132018 0.959116 0.008465
v 0.124522 0.952488 0.007187
v 0.149409 0.940396 0.000003
v 0.135674 0.940590 -0.000228
v 0.132020 0.959101 -0.008458
v 0.124522 0.952488 -0.007414
v 0.116958 0.974891 -0.015599
v 0.110404 0.966556 -0.012373
v 0.094179 0.996886 -0.026664
v 0.093308 0.981200 -0.021765
v 0.067244 1.016970 -0.040023
v 0.065415 1.000728 -0.033012
v 0.046121 1.026091 -0.050501
v 0.044383 1.010608 -0.041672
vt 1.000000 0.000000
vt 1.000000 1.000000
vt 0.000000 1.000000
vt 1.000000 1.000000
vt 0.000000 1.000000
vt 0.500000 0.500000
vt 0.500000 1.000000
vt 0.437500 1.000000
vt 0.437500 0.500000
vt 0.375000 1.000000
vt 0.375000 0.500000
vt 0.312500 1.000000
vt 0.312500 0.500000
vt 0.250000 1.000000
vt 0.250000 0.500000
vt 0.187500 1.000000
vt 0.187500 0.500000
vt 0.125000 1.000000
vt 0.125000 0.500000
vt 0.062500 1.000000
vt 0.062500 0.500000
vt 0.000000 1.000000
vt 0.000000 0.500000
vt 0.250000 0.161085
vt 0.250000 0.168219
vt 0.229581 0.173795
vt 0.227701 0.166778
vt 0.221435 0.179885
vt 0.218675 0.173110
vt 0.210592 0.191246
vt 0.206427 0.185037
vt 0.199984 0.206293
vt 0.194207 0.201245
vt 0.192521 0.224843
vt 0.185474 0.221758
vt 0.188586 0.250000
vt 0.180533 0.250000
vt 0.192517 0.275159
vt 0.185470 0.278243
vt 0.199977 0.293713
vt 0.194200 0.298761
vt 0.210580 0.308770
vt 0.206416 0.314979
vt 0.221421 0.320150
vt 0.218661 0.326923
vt 0.229566 0.326260
vt 0.227687 0.333275
vt 0.250000 0.331887
vt 0.250000 0.339017
vt 0.090631 0.389265
vt 0.188424 0.303808
vt 0.202252 0.321187
vt 0.135875 0.420148
vt 0.215901 0.333697
vt 0.175800 0.432129
vt 0.225807 0.340290
vt 0.199770 0.437459
vt 0.250000 0.044698
vt 0.250000 0.153950
vt 0.225820 0.159760
vt 0.199749 0.062460
vt 0.055768 0.335011
vt 0.178422 0.281328
vt 0.215915 0.166335
vt 0.175793 0.067854
vt 0.202262 0.178828
vt 0.135893 0.079879
vt 0.188431 0.196197
vt 0.090657 0.110758
vt 0.178426 0.218674
vt 0.055786 0.164996
vt 0.172480 0.250000
vt 0.029090 0.250000
vt 0.250000 0.250000
vt 0.218942 0.485911
vt 0.249367 0.489917
vt 0.249542 0.010060
vt 0.218942 0.014089
vt 0.174053 0.476093
vt 0.187529 0.481676
vt 0.187602 0.018294
vt 0.174053 0.023906
vt 0.139228 0.458406
vt 0.159418 0.469907
vt 0.159685 0.029941
vt 0.139229 0.041594
vt 0.095057 0.426049
vt 0.116719 0.445114
vt 0.117347 0.054333
vt 0.095057 0.073951
vt 0.054056 0.374606
vt 0.069736 0.401917
vt 0.070714 0.096379
vt 0.054056 0.125394
vt 0.000000 0.000000
vt 0.000000 0.000000
vt 0.000000 0.000000
vt 0.000000 0.000000
vt 0.038376 0.347296
vt 0.037398 0.154408
vt 0.073396 0.406985
vt 0.072768 0.093568
vt 0.119039 0.446906
vt 0.118772 0.053246
vt 0.160577 0.470511
vt 0.160505 0.029518
vt 0.188516 0.481905
vt 0.188341 0.018118
vt 0.250000 0.346147
vt 0.375000 0.500000
vt 0.062500 0.500000
vt 0.500000 0.500000
vt 0.187500 0.500000
vt 0.312500 0.500000
vt 0.437500 0.500000
vt 0.125000 0.500000
vt 0.250000 0.500000
vt 0.187884 0.018178
vt 0.249450 0.010072
vt 0.160223 0.029635
vt 0.187327 0.018408
vt 0.118235 0.053552
vt 0.159595 0.029993
vt 0.071880 0.094349
vt 0.117438 0.054253
vt 0.036232 0.156438
vt 0.070966 0.095942
vt 0.012564 0.240856
vt 0.035640 0.158548
vt 0.035640 0.341452
vt 0.012564 0.259143
vt 0.070965 0.404058
vt 0.036232 0.343562
vt 0.117437 0.445746
vt 0.071880 0.405651
vt 0.159594 0.470007
vt 0.118234 0.446448
vt 0.187327 0.481592
vt 0.160223 0.470365
vt 0.250000 0.455026
vt 0.249450 0.489928
vt 0.187883 0.481822
vt 0.000000 1.000000
vt 0.000000 1.000000
vt 0.437500 0.500000
vt 0.437500 1.000000
vt 0.375000 0.500000
vt 0.375000 1.000000
vt 0.312500 0.500000
vt 0.312500 1.000000
vt 0.250000 0.500000
vt 0.250000 1.000000
vt 0.187500 0.500000
vt 0.187500 1.000000
vt 0.125000 0.500000
vt 0.125000 1.000000
vt 0.062500 0.500000
vt 0.062500 1.000000
vt 0.227701 0.166778
vt 0.229581 0.173795
vt 0.250000 0.168219
vt 0.218675 0.173110
vt 0.221435 0.179885
vt 0.206427 0.185037
vt 0.210592 0.191246
vt 0.194207 0.201245
vt 0.199984 0.206293
vt 0.185474 0.221758
vt 0.192521 0.224843
vt 0.180533 0.250000
vt 0.188586 0.250000
vt 0.185470 0.278243
vt 0.192517 0.275159
vt 0.194200 0.298761
vt 0.199977 0.293713
vt 0.206416 0.314979
vt 0.210580 0.308770
vt 0.218661 0.326923
vt 0.221421 0.320150
vt 0.227687 0.333275
vt 0.229566 0.326260
vt 0.250000 0.331887
vt 0.090631 0.389265
vt 0.135875 0.420148
vt 0.202252 0.321187
vt 0.188424 0.303808
vt 0.175800 0.432129
vt 0.215901 0.333697
vt 0.199770 0.437459
vt 0.225807 0.340290
vt 0.199749 0.062460
vt 0.225820 0.159760
vt 0.250000 0.153950
vt 0.055768 0.335011
vt 0.178422 0.281328
vt 0.175793 0.067854
vt 0.215915 0.166335
vt 0.135893 0.079879
vt 0.202262 0.178828
vt 0.090657 0.110758
vt 0.188431 0.196197
vt 0.055786 0.164996
vt 0.178426 0.218674
vt 0.029090 0.250000
vt 0.172480 0.250000
vt 0.218942 0.485911
vt 0.249367 0.489917
vt 0.174053 0.476093
vt 0.174053 0.023906
vt 0.187602 0.018294
vt 0.187529 0.481676
vt 0.139228 0.458406
vt 0.139229 0.041594
vt 0.159685 0.029941
vt 0.159418 0.469907
vt 0.095057 0.426049
vt 0.095057 0.073951
vt 0.117347 0.054333
vt 0.116719 0.445114
vt 0.054056 0.374606
vt 0.054056 0.125394
vt 0.070714 0.096379
vt 0.069736 0.401917
vt 0.000000 0.000000
vt 0.000000 0.000000
vt 0.000000 0.000000
vt 0.000000 0.000000
vt 0.038376 0.347296
vt 0.037398 0.154408
vt 0.073396 0.406985
vt 0.072768 0.093568
vt 0.119039 0.446906
vt 0.118772 0.053246
vt 0.160577 0.470511
vt 0.160505 0.029518
vt 0.188516 0.481905
vt 0.250000 0.346147
vt 0.187884 0.018178
vt 0.187327 0.018408
vt 0.160223 0.029635
vt 0.159595 0.029993
vt 0.118235 0.053552
vt 0.117438 0.054253
vt 0.071880 0.094349
vt 0.070966 0.095942
vt 0.036232 0.156438
vt 0.035640 0.158548
vt 0.012564 0.240856
vt 0.012564 0.259143
vt 0.035640 0.341452
vt 0.036232 0.343562
vt 0.070965 0.404058
vt 0.071880 0.405651
vt 0.117437 0.445746
vt 0.118234 0.446448
vt 0.159594 0.470007
vt 0.160223 0.470365
vt 0.187327 0.481592
vt 0.187883 0.481822
vn 0.0000 0.0000 -1.0000
vn 0.0000 -0.6657 0.7462
vn 0.0000 0.0000 1.0000
vn -0.3827 0.0000 0.9239
vn -0.2856 -0.6657 0.6894
vn -0.7071 0.0000 0.7071
vn -0.5276 -0.6657 0.5276
vn -0.9239 0.0000 0.3827
vn -0.6894 -0.6657 0.2856
vn -1.0000 0.0000 0.0000
vn -0.7462 -0.6657 0.0000
vn -0.9239 0.0000 -0.3827
vn -0.6894 -0.6657 -0.2856
vn -0.7071 0.0000 -0.7071
vn -0.5276 -0.6657 -0.5276
vn -0.3827 0.0000 -0.9239
vn -0.2856 -0.6657 -0.6894
vn 0.0000 -0.6657 -0.7462
vn -0.3703 0.1900 0.9093
vn -0.3596 0.2670 0.8941
vn -0.3907 0.2727 0.8792
vn -0.4024 0.1927 0.8950
vn -0.4370 0.2783 0.8553
vn -0.4502 0.1953 0.8713
vn -0.4661 0.2853 0.8375
vn -0.4802 0.1991 0.8543
vn -0.4847 0.2913 0.8248
vn -0.4994 0.2026 0.8424
vn -0.4993 0.2978 0.8137
vn -0.5146 0.2067 0.8321
vn -0.5114 0.2847 0.8108
vn -0.5246 0.1999 0.8275
vn -0.5247 0.1998 -0.8275
vn -0.5114 0.2845 -0.8109
vn -0.4992 0.2976 -0.8138
vn -0.5147 0.2066 -0.8321
vn -0.4846 0.2911 -0.8249
vn -0.4995 0.2025 -0.8423
vn -0.4660 0.2851 -0.8376
vn -0.4803 0.1990 -0.8542
vn -0.4368 0.2781 -0.8555
vn -0.4504 0.1952 -0.8712
vn -0.3905 0.2725 -0.8794
vn -0.4025 0.1927 -0.8949
vn -0.3595 0.2668 -0.8942
vn -0.3705 0.1900 -0.9092
vn -0.3070 -0.1561 -0.9388
vn -0.4924 0.1019 -0.8644
vn -0.4794 0.0957 -0.8724
vn -0.3291 -0.1624 -0.9302
vn -0.4570 0.0914 -0.8847
vn -0.3388 -0.1933 -0.9208
vn -0.4157 0.0983 -0.9042
vn -0.3341 -0.2572 -0.9068
vn 0.0000 -0.2737 0.9618
vn -0.3838 0.1061 0.9173
vn -0.4154 0.0983 0.9043
vn -0.3339 -0.2575 0.9067
vn -0.2955 -0.1621 -0.9415
vn -0.5050 0.1082 -0.8563
vn -0.4567 0.0913 0.8849
vn -0.3386 -0.1935 0.9208
vn -0.4792 0.0956 0.8725
vn -0.3289 -0.1625 0.9303
vn -0.4922 0.1018 0.8645
vn -0.3062 -0.1585 0.9387
vn -0.5047 0.1080 0.8565
vn -0.2894 -0.1713 0.9417
vn -0.5093 0.0980 0.8550
vn -0.7999 -0.6002 0.0053
vn -0.5095 0.0982 -0.8548
vn -0.4119 0.3266 0.8507
vn -0.4116 0.3262 -0.8510
vn 0.3732 -0.9278 -0.0000
vn 0.0975 -0.9225 -0.3735
vn 0.0000 -0.9083 -0.4183
vn -0.0000 -1.0000 -0.0000
vn 0.5436 -0.8393 -0.0000
vn 0.2511 -0.8643 -0.4357
vn 0.6646 -0.7472 -0.0000
vn 0.3621 -0.8235 -0.4367
vn 0.7715 -0.6362 -0.0012
vn 0.5022 -0.7962 -0.3374
vn 0.8667 -0.4988 -0.0059
vn 0.5796 -0.7350 -0.3519
vn 0.2116 -0.9772 -0.0167
vn 0.5873 -0.7355 0.3380
vn 0.5019 -0.7970 0.3361
vn 0.3621 -0.8235 0.4367
vn 0.2511 -0.8644 0.4357
vn 0.0976 -0.9226 0.3733
vn 0.0000 -0.9085 0.4178
vn -0.3841 0.1059 -0.9172
vn -0.0000 -0.2733 -0.9619
vn 0.2856 -0.6657 0.6894
vn 0.3827 0.0000 0.9239
vn 0.5276 -0.6657 0.5276
vn 0.7071 0.0000 0.7071
vn 0.6894 -0.6657 0.2856
vn 0.9239 0.0000 0.3827
vn 0.7462 -0.6657 0.0000
vn 1.0000 0.0000 0.0000
vn 0.6894 -0.6657 -0.2856
vn 0.9239 0.0000 -0.3827
vn 0.5276 -0.6657 -0.5276
vn 0.7071 0.0000 -0.7071
vn 0.2856 -0.6657 -0.6894
vn 0.3827 0.0000 -0.9239
vn 0.3703 0.1900 0.9093
vn 0.4024 0.1927 0.8950
vn 0.3907 0.2727 0.8792
vn 0.3596 0.2670 0.8941
vn 0.4502 0.1953 0.8713
vn 0.4370 0.2783 0.8553
vn 0.4802 0.1991 0.8543
vn 0.4661 0.2853 0.8375
vn 0.4994 0.2026 0.8424
vn 0.4847 0.2913 0.8248
vn 0.5146 0.2067 0.8321
vn 0.4993 0.2978 0.8137
vn 0.5246 0.1999 0.8275
vn 0.5114 0.2847 0.8108
vn 0.5247 0.1998 -0.8275
vn 0.5147 0.2066 -0.8321
vn 0.4992 0.2976 -0.8138
vn 0.5114 0.2845 -0.8109
vn 0.4995 0.2025 -0.8423
vn 0.4846 0.2911 -0.8249
vn 0.4803 0.1990 -0.8542
vn 0.4660 0.2851 -0.8376
vn 0.4504 0.1952 -0.8712
vn 0.4368 0.2781 -0.8555
vn 0.4025 0.1927 -0.8949
vn 0.3905 0.2725 -0.8794
vn 0.3705 0.1900 -0.9092
vn 0.3595 0.2668 -0.8942
vn 0.3070 -0.1561 -0.9388
vn 0.3291 -0.1624 -0.9302
vn 0.4794 0.0957 -0.8724
vn 0.4924 0.1019 -0.8644
vn 0.3388 -0.1933 -0.9208
vn 0.4570 0.0914 -0.8847
vn 0.3341 -0.2572 -0.9068
vn 0.4157 0.0983 -0.9042
vn 0.3339 -0.2575 0.9067
vn 0.4154 0.0983 0.9043
vn 0.3838 0.1061 0.9173
vn 0.2955 -0.1621 -0.9415
vn 0.5050 0.1082 -0.8563
vn 0.3386 -0.1935 0.9208
vn 0.4567 0.0913 0.8849
vn 0.3289 -0.1625 0.9303
vn 0.4792 0.0956 0.8725
vn 0.3062 -0.1585 0.9387
vn 0.4922 0.1018 0.8645
vn 0.2894 -0.1713 0.9417
vn 0.5047 0.1080 0.8565
vn 0.7999 -0.6002 0.0053
vn 0.5093 0.0980 0.8550
vn 0.5095 0.0982 -0.8548
vn 0.4119 0.3266 0.8507
vn 0.4116 0.3262 -0.8510
vn -0.3732 -0.9278 -0.0000
vn -0.0975 -0.9225 -0.3735
vn -0.5436 -0.8393 -0.0000
vn -0.2511 -0.8643 -0.4357
vn -0.6646 -0.7472 -0.0000
vn -0.3621 -0.8235 -0.4367
vn -0.7715 -0.6362 -0.0012
vn -0.5022 -0.7962 -0.3374
vn -0.8667 -0.4988 -0.0059
vn -0.5796 -0.7350 -0.3519
vn -0.2116 -0.9772 -0.0167
vn -0.5873 -0.7355 0.3380
vn -0.5019 -0.7970 0.3361
vn -0.3621 -0.8235 0.4367
vn -0.2511 -0.8644 0.4357
vn -0.0976 -0.9226 0.3733
vn 0.3841 0.1059 -0.9172
usemtl None
s 1
f 96/1/1 94/2/1 1/3/1
f 1/3/1 94/2/1 97/4/1 2/5/1
f 101/6/2 102/7/3 4/8/4 3/9/5
f 3/9/5 4/8/4 6/10/6 5/11/7
f 5/11/7 6/10/6 8/12/8 7/13/9
f 7/13/9 8/12/8 10/14/10 9/15/11
f 9/15/11 10/14/10 12/16/12 11/17/13
f 11/17/13 12/16/12 14/18/14 13/19/15
f 13/19/15 14/18/14 16/20/16 15/21/17
f 15/21/17 16/20/16 100/22/1 99/23/18
f 174/24/19 24/25/20 27/26/21 70/27/22
f 70/27/22 27/26/21 23/28/23 69/29/24
f 69/29/24 23/28/23 25/30/25 68/31/26
f 68/31/26 25/30/25 22/32/27 71/33/28
f 71/33/28 22/32/27 26/34/29 67/35/30
f 67/35/30 26/34/29 28/36/31 66/37/32
f 66/37/33 28/36/34 30/38/35 65/39/36
f 65/39/36 30/38/35 32/40/37 64/41/38
f 64/41/38 32/40/37 34/42/39 63/43/40
f 63/43/40 34/42/39 29/44/41 62/45/42
f 62/45/42 29/44/41 31/46/43 61/47/44
f 61/47/44 31/46/43 33/48/45 163/49/46
f 86/50/47 38/51/48 37/52/49 88/53/50
f 88/53/50 37/52/49 36/54/51 90/55/52
f 90/55/52 36/54/51 35/56/53 92/57/54
f 179/58/55 45/59/56 44/60/57 72/61/58
f 84/62/59 39/63/60 38/51/48 86/50/47
f 72/61/58 44/60/57 43/64/61 74/65/62
f 74/65/62 43/64/61 42/66/63 76/67/64
f 76/67/64 42/66/63 46/68/65 78/69/66
f 78/69/66 46/68/65 41/70/67 80/71/68
f 80/71/68 41/70/67 40/72/69 82/73/70
f 82/73/70 40/72/71 39/63/60 84/62/59
f 28/36/31 26/34/29 117/74/72
f 25/30/25 23/28/23 117/74/72
f 22/32/27 25/30/25 117/74/72
f 27/26/21 24/25/20 117/74/72
f 26/34/29 22/32/27 117/74/72
f 23/28/23 27/26/21 117/74/72
f 29/44/41 34/42/39 117/74/73
f 30/38/35 28/36/34 117/74/73
f 31/46/43 29/44/41 117/74/73
f 32/40/37 30/38/35 117/74/73
f 33/48/45 31/46/43 117/74/73
f 34/42/39 32/40/37 117/74/73
f 21/75/74 93/76/75 177/77/76 123/78/77
f 20/79/78 91/80/79 93/81/75 21/82/74
f 19/83/80 89/84/81 91/85/79 20/86/78
f 18/87/82 87/88/83 89/89/81 19/90/80
f 17/91/84 85/92/85 87/93/83 18/94/82
f 85/95/85 17/96/84 83/97/86
f 83/97/86 17/96/84 81/98/87
f 81/99/87 17/91/84 18/94/82 79/100/88
f 79/101/88 18/87/82 19/90/80 77/102/89
f 77/103/89 19/83/80 20/86/78 75/104/90
f 75/105/90 20/79/78 21/82/74 73/106/91
f 73/107/91 21/75/74 123/78/77 180/108/92
f 35/56/53 61/47/44 163/49/46 47/109/93
f 36/54/51 62/45/42 61/47/44 35/56/53
f 37/52/49 63/43/40 62/45/42 36/54/51
f 38/51/48 64/41/38 63/43/40 37/52/49
f 39/63/60 65/39/36 64/41/38 38/51/48
f 40/72/71 66/37/33 65/39/36 39/63/60
f 41/70/67 67/35/30 66/37/32 40/72/69
f 46/68/65 71/33/28 67/35/30 41/70/67
f 42/66/63 68/31/26 71/33/28 46/68/65
f 43/64/61 69/29/24 68/31/26 42/66/63
f 44/60/57 70/27/22 69/29/24 43/64/61
f 45/59/56 174/24/19 70/27/22 44/60/57
f 5/11/7 7/13/9 176/110/77
f 15/21/17 99/23/18 176/111/77
f 101/6/2 3/9/5 176/112/77
f 11/17/13 13/19/15 176/113/77
f 7/13/9 9/15/11 176/114/77
f 3/9/5 5/11/7 176/115/77
f 13/19/15 15/21/17 176/116/77
f 9/15/11 11/17/13 176/117/77
f 179/58/55 72/61/58 73/118/91 180/119/92
f 72/61/58 74/65/62 75/120/90 73/121/91
f 74/65/62 76/67/64 77/122/89 75/123/90
f 76/67/64 78/69/66 79/124/88 77/125/89
f 78/69/66 80/71/68 81/126/87 79/127/88
f 80/71/68 82/73/70 83/128/86 81/129/87
f 82/73/70 84/62/59 85/130/85 83/131/86
f 84/62/59 86/50/47 87/132/83 85/133/85
f 86/50/47 88/53/50 89/134/81 87/135/83
f 88/53/50 90/55/52 91/136/79 89/137/81
f 90/55/52 92/57/54 93/138/75 91/139/79
f 92/57/54 178/140/94 177/141/76 93/142/75
f 92/57/54 35/56/53 47/109/93 178/140/94
f 96/1/1 95/143/1 94/2/1
f 95/143/1 98/144/1 97/4/1 94/2/1
f 101/6/2 103/145/95 104/146/96 102/7/3
f 103/145/95 105/147/97 106/148/98 104/146/96
f 105/147/97 107/149/99 108/150/100 106/148/98
f 107/149/99 109/151/101 110/152/102 108/150/100
f 109/151/101 111/153/103 112/154/104 110/152/102
f 111/153/103 113/155/105 114/156/106 112/154/104
f 113/155/105 115/157/107 116/158/108 114/156/106
f 115/157/107 99/23/18 100/22/1 116/158/108
f 174/24/109 173/159/110 129/160/111 126/161/112
f 173/159/110 172/162/113 125/163/114 129/160/111
f 172/162/113 171/164/115 127/165/116 125/163/114
f 171/164/115 175/166/117 124/167/118 127/165/116
f 175/166/117 170/168/119 128/169/120 124/167/118
f 170/168/119 169/170/121 130/171/122 128/169/120
f 169/170/123 168/172/124 132/173/125 130/171/126
f 168/172/124 167/174/127 134/175/128 132/173/125
f 167/174/127 166/176/129 136/177/130 134/175/128
f 166/176/129 165/178/131 131/179/132 136/177/130
f 165/178/131 164/180/133 133/181/134 131/179/132
f 164/180/133 163/49/135 135/182/136 133/181/134
f 195/183/137 197/184/138 139/185/139 140/186/140
f 197/184/138 199/187/141 138/188/142 139/185/139
f 199/187/141 201/189/143 137/190/144 138/188/142
f 179/58/55 181/191/145 146/192/146 147/193/147
f 193/194/148 195/183/137 140/186/140 141/195/149
f 181/191/145 183/196/150 145/197/151 146/192/146
f 183/196/150 185/198/152 144/199/153 145/197/151
f 185/198/152 187/200/154 148/201/155 144/199/153
f 187/200/154 189/202/156 143/203/157 148/201/155
f 189/202/156 191/204/158 142/205/159 143/203/157
f 191/204/158 193/194/148 141/195/149 142/205/160
f 130/171/122 117/74/161 128/169/120
f 127/165/116 117/74/161 125/163/114
f 124/167/118 117/74/161 127/165/116
f 129/160/111 117/74/161 126/161/112
f 128/169/120 117/74/161 124/167/118
f 125/163/114 117/74/161 129/160/111
f 131/179/132 117/74/162 136/177/130
f 132/173/125 117/74/162 130/171/126
f 133/181/134 117/74/162 131/179/132
f 134/175/128 117/74/162 132/173/125
f 135/182/136 117/74/162 133/181/134
f 136/177/130 117/74/162 134/175/128
f 122/206/163 123/78/77 177/77/76 202/207/164
f 121/208/165 122/209/163 202/210/164 200/211/166
f 120/212/167 121/213/165 200/214/166 198/215/168
f 119/216/169 120/217/167 198/218/168 196/219/170
f 118/220/171 119/221/169 196/222/170 194/223/172
f 194/224/172 192/225/173 118/226/171
f 192/225/173 190/227/174 118/226/171
f 190/228/174 188/229/175 119/221/169 118/220/171
f 188/230/175 186/231/176 120/217/167 119/216/169
f 186/232/176 184/233/177 121/213/165 120/212/167
f 184/234/177 182/235/178 122/209/163 121/208/165
f 182/236/178 180/108/92 123/78/77 122/206/163
f 137/190/144 149/237/179 163/49/135 164/180/133
f 138/188/142 137/190/144 164/180/133 165/178/131
f 139/185/139 138/188/142 165/178/131 166/176/129
f 140/186/140 139/185/139 166/176/129 167/174/127
f 141/195/149 140/186/140 167/174/127 168/172/124
f 142/205/160 141/195/149 168/172/124 169/170/123
f 143/203/157 142/205/159 169/170/121 170/168/119
f 148/201/155 143/203/157 170/168/119 175/166/117
f 144/199/153 148/201/155 175/166/117 171/164/115
f 145/197/151 144/199/153 171/164/115 172/162/113
f 146/192/146 145/197/151 172/162/113 173/159/110
f 147/193/147 146/192/146 173/159/110 174/24/109
f 105/147/97 176/110/77 107/149/99
f 115/157/107 176/111/77 99/23/18
f 101/6/2 176/112/77 103/145/95
f 111/153/103 176/113/77 113/155/105
f 107/149/99 176/114/77 109/151/101
f 103/145/95 176/115/77 105/147/97
f 113/155/105 176/116/77 115/157/107
f 109/151/101 176/117/77 111/153/103
f 179/58/55 180/119/92 182/238/178 181/191/145
f 181/191/145 182/239/178 184/240/177 183/196/150
f 183/196/150 184/241/177 186/242/176 185/198/152
f 185/198/152 186/243/176 188/244/175 187/200/154
f 187/200/154 188/245/175 190/246/174 189/202/156
f 189/202/156 190/247/174 192/248/173 191/204/158
f 191/204/158 192/249/173 194/250/172 193/194/148
f 193/194/148 194/251/172 196/252/170 195/183/137
f 195/183/137 196/253/170 198/254/168 197/184/138
f 197/184/138 198/255/168 200/256/166 199/187/141
f 199/187/141 200/257/166 202/258/164 201/189/143
f 201/189/143 202/259/164 177/141/76 178/140/94
f 201/189/143 178/140/94 149/237/179 137/190/144
l 54 52
l 51 49
l 48 51
l 53 50
l 52 48
l 49 53
l 60 55
l 54 56
l 55 57
l 56 58
l 57 59
l 58 60
l 156 154
l 153 151
l 150 153
l 155 152
l 154 150
l 151 155
l 162 157
l 156 158
l 157 159
l 158 160
l 159 161
l 160 162
