# Blender v2.80 (sub 75) OBJ File: 'Bush1.blend'
# www.blender.org
o Plane
v 0.199568 -0.189779 -0.281842
v 0.403642 0.864060 -1.998714
v -0.170024 -0.073264 -0.318647
v -0.155228 -0.168303 0.045675
v 0.341043 0.297761 -0.613269
v -0.244211 0.482265 -0.671550
v 0.450145 0.806137 -1.410760
v -0.041141 0.961017 -1.459684
v -0.540636 1.005084 1.543894
v 0.207110 -0.132067 0.183249
v -0.226420 0.518352 0.162433
v 0.287865 0.375410 0.601102
v -0.443189 0.991702 0.959486
v 0.038455 1.039870 1.142360
v 0.187816 -0.197081 -0.018431
v 1.551520 1.305464 0.330643
v 0.328677 -0.141445 -0.377028
v 0.319203 0.504666 0.040483
v 0.534641 0.566745 -0.533706
v 0.987084 1.156545 0.228454
v 1.167932 1.208656 -0.253544
v -0.160873 -0.153355 -0.341643
v -1.375065 0.167724 0.244272
v -0.079207 -0.145812 -0.088147
v -0.463590 0.103478 -0.220870
v -0.334271 0.115421 0.180543
v -1.034529 0.266736 0.047395
v -0.925974 0.276762 0.384358
v 0.272666 -0.271207 0.314614
v 1.425209 0.461934 0.548710
v 0.326179 -0.204147 0.062373
v 0.487458 0.068037 0.419326
v 0.572195 0.174227 0.019900
v 1.021727 0.421971 0.537132
v 1.092859 0.511112 0.201837
v 0.523968 -0.231388 -0.191966
v 1.382555 0.531453 -0.967565
v 0.392861 -0.250916 -0.423084
v 0.679204 0.122220 -0.343788
v 0.471594 0.091296 -0.709767
v 1.080020 0.492186 -0.700247
v 0.905743 0.466228 -1.007464
v -0.197782 -0.165623 -0.499237
v -1.602980 0.636144 -0.838952
v -0.345129 -0.177226 -0.139122
v -0.412021 0.479767 -0.574825
v -0.527720 0.452762 -0.226217
v -0.988008 0.756981 -0.811654
v -1.138665 0.933523 -0.564672
v -0.768509 0.846807 -0.452968
v -0.743010 0.656829 -0.743541
s off
f 7 2 8
f 1 5 6 3
f 5 7 8 6
f 13 9 14
f 4 11 12 10
f 11 13 14 12
f 20 16 21
f 15 18 19 17
f 18 20 21 19
f 27 23 28
f 22 25 26 24
f 25 27 28 26
f 34 30 35
f 29 32 33 31
f 32 34 35 33
f 41 37 42
f 36 39 40 38
f 39 41 42 40
f 48 44 49
f 43 46 47 45
f 51 48 49 50
f 46 51 50 47
