%YAML 1.1
%TAG !u! tag:unity3d.com,2011:
--- !u!78 &1
TagManager:
  serializedVersion: 2
  tags:
  - target
  - ground
  - banana
  - wall
  - agent
  - badBanana
  - block
  - goal
  - stone
  - pyramid
  - walkableSurface
  - blueAgent
  - blueGoal
  - redGoal
  - ball
  - orangeGoal
  - orangeBlock
  - redBlock
  - iWall
  - switchOff
  - pit
  layers:
  - Default
  - TransparentFX
  - Ignore Raycast
  - 
  - Water
  - UI
  - 
  - 
  - Monster
  - Projectile
  - Player
  - 
  - 
  - 
  - 
  - 
  - 
  - 
  - 
  - 
  - 
  - 
  - 
  - 
  - 
  - 
  - 
  - 
  - 
  - 
  - 
  - 
  m_SortingLayers:
  - name: Default
    uniqueID: 0
    locked: 0
